[gd_scene load_steps=3 format=2]

[ext_resource path="res://Assets/GUI/Skill_Icon/if230.png" type="Texture" id=1]
[ext_resource path="res://Scenes/GUI/Overlay_Fight/SkillMaybe.tscn" type="PackedScene" id=2]

[node name="MarginContainer" instance=ExtResource( 2 )]

[node name="TextureRect" parent="NinePatchRect" index="0"]
texture = ExtResource( 1 )
